Praktikum5-V354/content/Bilder/ALL0030/F0030CH1.CSV

Record Length,2.500000e+03,,  -0.000020000000,  -0.02144,
Sample Interval,2.000000e-07,,  -0.000019800000,  -0.03216,
Trigger Point,1.000000000000e+02,,  -0.000019600000,  -0.01072,
,,,  -0.000019400000,   0.00000,
,,,  -0.000019200000,  -0.02144,
,,,  -0.000019000000,  -0.02144,
Source,CH1,,  -0.000018800000,  -0.02144,
Vertical Units,V,,  -0.000018600000,  -0.01072,
Vertical Scale,2.680000e-01,,  -0.000018400000,   0.01072,
Vertical Offset,-9.540800e-01,,  -0.000018200000,   0.00000,
Horizontal Units,s,,  -0.000018000000,   0.02144,
Horizontal Scale,5.000000e-05,,  -0.000017800000,  -0.01072,
Pt Fmt,Y,,  -0.000017600000,  -0.01072,
Yzero,0.000000e+00,,  -0.000017400000,   0.00000,
Probe Atten,1.000000e+00,,  -0.000017200000,   0.01072,
Model Number,TDS1001B,,  -0.000017000000,  -0.01072,
Serial Number,C059827,,  -0.000016800000,  -0.02144,
Firmware Version,FV:v22.01,,  -0.000016600000,   0.01072,
,,,-00.000016400000,   0.01072,
,,,-00.000016200000,   0.02144,
,,,-00.000016000000,   0.01072,
,,,-00.000015800000,   0.01072,
,,,-00.000015600000,   0.01072,
,,,-00.000015400000,   0.03216,
,,,-00.000015200000,   0.02144,
,,,-00.000015000000,   0.02144,
,,,-00.000014800000,   0.04288,
,,,-00.000014600000,   0.05360,
,,,-00.000014400000,   0.01072,
,,,-00.000014200000,   0.02144,
,,,-00.000014000000,   0.01072,
,,,-00.000013800000,   0.03216,
,,,-00.000013600000,  -0.01072,
,,,-00.000013400000,   0.03216,
,,,-00.000013200000,   0.05360,
,,,-00.000013000000,   0.04288,
,,,-00.000012800000,   0.06432,
,,,-00.000012600000,   0.04288,
,,,-00.000012400000,   0.07504,
,,,-00.000012200000,   0.06432,
,,,-00.000012000000,   0.07504,
,,,-00.000011800000,   0.09648,
,,,-00.000011600000,   0.09648,
,,,-00.000011400000,   0.10720,
,,,-00.000011200000,   0.13936,
,,,-00.000011000000,   0.13936,
,,,-00.000010800000,   0.16080,
,,,-00.000010600000,   0.16080,
,,,-00.000010400000,   0.18224,
,,,-00.000010200000,   0.20368,
,,,-00.000010000000,   0.21440,
,,,-00.000009800000,   0.23584,
,,,-00.000009600000,   0.25728,
,,,-00.000009400000,   0.28944,
,,,-00.000009200000,   0.31088,
,,,-00.000009000000,   0.30016,
,,,-00.000008800000,   0.36448,
,,,-00.000008600000,   0.37520,
,,,-00.000008400000,   0.37520,
,,,-00.000008200000,   0.42880,
,,,-00.000008000000,   0.41808,
,,,-00.000007800000,   0.47168,
,,,-00.000007600000,   0.48240,
,,,-00.000007400000,   0.50384,
,,,-00.000007200000,   0.54672,
,,,-00.000007000000,   0.53600,
,,,-00.000006800000,   0.57888,
,,,-00.000006600000,   0.64320,
,,,-00.000006400000,   0.65392,
,,,-00.000006200000,   0.68608,
,,,-00.000006000000,   0.68608,
,,,-00.000005800000,   0.71824,
,,,-00.000005600000,   0.77184,
,,,-00.000005400000,   0.80400,
,,,-00.000005200000,   0.83616,
,,,-00.000005000000,   0.83616,
,,,-00.000004800000,   0.87904,
,,,-00.000004600000,   0.90048,
,,,-00.000004400000,   0.95408,
,,,-00.000004200000,   0.97552,
,,,-00.000004000000,   0.99696,
,,,-00.000003800000,   1.05056,
,,,-00.000003600000,   1.07200,
,,,-00.000003400000,   1.07200,
,,,-00.000003200000,   1.11488,
,,,-00.000003000000,   1.14704,
,,,-00.000002800000,   1.15776,
,,,-00.000002600000,   1.21136,
,,,-00.000002400000,   1.22208,
,,,-00.000002200000,   1.26496,
,,,-00.000002000000,   1.31856,
,,,-00.000001800000,   1.32928,
,,,-00.000001600000,   1.35072,
,,,-00.000001400000,   1.39360,
,,,-00.000001200000,   1.39360,
,,,-00.000001000000,   1.40432,
,,,-00.000000800000,   1.45792,
,,,-00.000000600000,   1.47936,
,,,-00.000000400000,   1.50080,
,,,-00.000000200000,   1.51152,
,,,-00.000000000000,   1.53296,
,,,00.000000200000,   1.57584,
,,,00.000000400000,   1.54368,
,,,00.000000600000,   1.58656,
,,,00.000000800000,   1.60800,
,,,00.000001000000,   1.62944,
,,,00.000001200000,   1.65088,
,,,00.000001400000,   1.65088,
,,,00.000001600000,   1.66160,
,,,00.000001800000,   1.70448,
,,,00.000002000000,   1.71520,
,,,00.000002200000,   1.73664,
,,,00.000002400000,   1.74736,
,,,00.000002600000,   1.76880,
,,,00.000002800000,   1.77952,
,,,00.000003000000,   1.75808,
,,,00.000003200000,   1.75808,
,,,00.000003400000,   1.80096,
,,,00.000003600000,   1.79024,
,,,00.000003800000,   1.79024,
,,,00.000004000000,   1.81168,
,,,00.000004200000,   1.81168,
,,,00.000004400000,   1.79024,
,,,00.000004600000,   1.81168,
,,,00.000004800000,   1.82240,
,,,00.000005000000,   1.81168,
,,,00.000005200000,   1.82240,
,,,00.000005400000,   1.80096,
,,,00.000005600000,   1.81168,
,,,00.000005800000,   1.80096,
,,,00.000006000000,   1.79024,
,,,00.000006200000,   1.75808,
,,,00.000006400000,   1.79024,
,,,00.000006600000,   1.75808,
,,,00.000006800000,   1.76880,
,,,00.000007000000,   1.75808,
,,,00.000007200000,   1.76880,
,,,00.000007400000,   1.73664,
,,,00.000007600000,   1.71520,
,,,00.000007800000,   1.69376,
,,,00.000008000000,   1.69376,
,,,00.000008200000,   1.66160,
,,,00.000008400000,   1.66160,
,,,00.000008600000,   1.66160,
,,,00.000008800000,   1.61872,
,,,00.000009000000,   1.61872,
,,,00.000009200000,   1.59728,
,,,00.000009400000,   1.59728,
,,,00.000009600000,   1.54368,
,,,00.000009800000,   1.53296,
,,,00.000010000000,   1.51152,
,,,00.000010200000,   1.49008,
,,,00.000010400000,   1.47936,
,,,00.000010600000,   1.42576,
,,,00.000010800000,   1.42576,
,,,00.000011000000,   1.40432,
,,,00.000011200000,   1.37216,
,,,00.000011400000,   1.32928,
,,,00.000011600000,   1.34000,
,,,00.000011800000,   1.31856,
,,,00.000012000000,   1.27568,
,,,00.000012200000,   1.25424,
,,,00.000012400000,   1.23280,
,,,00.000012600000,   1.20064,
,,,00.000012800000,   1.17920,
,,,00.000013000000,   1.12560,
,,,00.000013200000,   1.12560,
,,,00.000013400000,   1.08272,
,,,00.000013600000,   1.08272,
,,,00.000013800000,   1.03984,
,,,00.000014000000,   1.00768,
,,,00.000014200000,   0.97552,
,,,00.000014400000,   0.96480,
,,,00.000014600000,   0.93264,
,,,00.000014800000,   0.91120,
,,,00.000015000000,   0.84688,
,,,00.000015200000,   0.82544,
,,,00.000015400000,   0.81472,
,,,00.000015600000,   0.79328,
,,,00.000015800000,   0.76112,
,,,00.000016000000,   0.71824,
,,,00.000016200000,   0.71824,
,,,00.000016400000,   0.67536,
,,,00.000016600000,   0.64320,
,,,00.000016800000,   0.63248,
,,,00.000017000000,   0.62176,
,,,00.000017200000,   0.58960,
,,,00.000017400000,   0.55744,
,,,00.000017600000,   0.51456,
,,,00.000017800000,   0.50384,
,,,00.000018000000,   0.50384,
,,,00.000018200000,   0.47168,
,,,00.000018400000,   0.45024,
,,,00.000018600000,   0.42880,
,,,00.000018800000,   0.38592,
,,,00.000019000000,   0.38592,
,,,00.000019200000,   0.39664,
,,,00.000019400000,   0.36448,
,,,00.000019600000,   0.32160,
,,,00.000019800000,   0.30016,
,,,00.000020000000,   0.31088,
,,,00.000020200000,   0.30016,
,,,00.000020400000,   0.28944,
,,,00.000020600000,   0.24656,
,,,00.000020800000,   0.22512,
,,,00.000021000000,   0.23584,
,,,00.000021200000,   0.21440,
,,,00.000021400000,   0.21440,
,,,00.000021600000,   0.22512,
,,,00.000021800000,   0.20368,
,,,00.000022000000,   0.20368,
,,,00.000022200000,   0.20368,
,,,00.000022400000,   0.17152,
,,,00.000022600000,   0.18224,
,,,00.000022800000,   0.17152,
,,,00.000023000000,   0.18224,
,,,00.000023200000,   0.19296,
,,,00.000023400000,   0.16080,
,,,00.000023600000,   0.19296,
,,,00.000023800000,   0.16080,
,,,00.000024000000,   0.18224,
,,,00.000024200000,   0.17152,
,,,00.000024400000,   0.20368,
,,,00.000024600000,   0.21440,
,,,00.000024800000,   0.18224,
,,,00.000025000000,   0.21440,
,,,00.000025200000,   0.23584,
,,,00.000025400000,   0.19296,
,,,00.000025600000,   0.22512,
,,,00.000025800000,   0.24656,
,,,00.000026000000,   0.23584,
,,,00.000026200000,   0.26800,
,,,00.000026400000,   0.25728,
,,,00.000026600000,   0.25728,
,,,00.000026800000,   0.32160,
,,,00.000027000000,   0.31088,
,,,00.000027200000,   0.31088,
,,,00.000027400000,   0.34304,
,,,00.000027600000,   0.34304,
,,,00.000027800000,   0.38592,
,,,00.000028000000,   0.37520,
,,,00.000028200000,   0.40736,
,,,00.000028400000,   0.43952,
,,,00.000028600000,   0.42880,
,,,00.000028800000,   0.46096,
,,,00.000029000000,   0.50384,
,,,00.000029200000,   0.52528,
,,,00.000029400000,   0.53600,
,,,00.000029600000,   0.52528,
,,,00.000029800000,   0.56816,
,,,00.000030000000,   0.56816,
,,,00.000030200000,   0.64320,
,,,00.000030400000,   0.64320,
,,,00.000030600000,   0.67536,
,,,00.000030800000,   0.71824,
,,,00.000031000000,   0.70752,
,,,00.000031200000,   0.71824,
,,,00.000031400000,   0.77184,
,,,00.000031600000,   0.79328,
,,,00.000031800000,   0.82544,
,,,00.000032000000,   0.85760,
,,,00.000032200000,   0.86832,
,,,00.000032400000,   0.90048,
,,,00.000032600000,   0.91120,
,,,00.000032800000,   0.91120,
,,,00.000033000000,   1.00768,
,,,00.000033200000,   1.00768,
,,,00.000033400000,   1.03984,
,,,00.000033600000,   1.07200,
,,,00.000033800000,   1.08272,
,,,00.000034000000,   1.10416,
,,,00.000034200000,   1.14704,
,,,00.000034400000,   1.15776,
,,,00.000034600000,   1.20064,
,,,00.000034800000,   1.18992,
,,,00.000035000000,   1.21136,
,,,00.000035200000,   1.25424,
,,,00.000035400000,   1.27568,
,,,00.000035600000,   1.30784,
,,,00.000035800000,   1.30784,
,,,00.000036000000,   1.36144,
,,,00.000036200000,   1.32928,
,,,00.000036400000,   1.38288,
,,,00.000036600000,   1.41504,
,,,00.000036800000,   1.41504,
,,,00.000037000000,   1.44720,
,,,00.000037200000,   1.45792,
,,,00.000037400000,   1.47936,
,,,00.000037600000,   1.50080,
,,,00.000037800000,   1.51152,
,,,00.000038000000,   1.53296,
,,,00.000038200000,   1.55440,
,,,00.000038400000,   1.54368,
,,,00.000038600000,   1.56512,
,,,00.000038800000,   1.58656,
,,,00.000039000000,   1.61872,
,,,00.000039200000,   1.60800,
,,,00.000039400000,   1.61872,
,,,00.000039600000,   1.59728,
,,,00.000039800000,   1.67232,
,,,00.000040000000,   1.64016,
,,,00.000040200000,   1.67232,
,,,00.000040400000,   1.66160,
,,,00.000040600000,   1.66160,
,,,00.000040800000,   1.69376,
,,,00.000041000000,   1.68304,
,,,00.000041200000,   1.65088,
,,,00.000041400000,   1.70448,
,,,00.000041600000,   1.70448,
,,,00.000041800000,   1.70448,
,,,00.000042000000,   1.70448,
,,,00.000042200000,   1.69376,
,,,00.000042400000,   1.70448,
,,,00.000042600000,   1.70448,
,,,00.000042800000,   1.70448,
,,,00.000043000000,   1.69376,
,,,00.000043200000,   1.67232,
,,,00.000043400000,   1.69376,
,,,00.000043600000,   1.67232,
,,,00.000043800000,   1.66160,
,,,00.000044000000,   1.68304,
,,,00.000044200000,   1.65088,
,,,00.000044400000,   1.64016,
,,,00.000044600000,   1.62944,
,,,00.000044800000,   1.64016,
,,,00.000045000000,   1.62944,
,,,00.000045200000,   1.61872,
,,,00.000045400000,   1.57584,
,,,00.000045600000,   1.56512,
,,,00.000045800000,   1.56512,
,,,00.000046000000,   1.55440,
,,,00.000046200000,   1.50080,
,,,00.000046400000,   1.50080,
,,,00.000046600000,   1.52224,
,,,00.000046800000,   1.44720,
,,,00.000047000000,   1.46864,
,,,00.000047200000,   1.44720,
,,,00.000047400000,   1.42576,
,,,00.000047600000,   1.40432,
,,,00.000047800000,   1.35072,
,,,00.000048000000,   1.37216,
,,,00.000048200000,   1.36144,
,,,00.000048400000,   1.32928,
,,,00.000048600000,   1.32928,
,,,00.000048800000,   1.27568,
,,,00.000049000000,   1.26496,
,,,00.000049200000,   1.24352,
,,,00.000049400000,   1.20064,
,,,00.000049600000,   1.20064,
,,,00.000049800000,   1.15776,
,,,00.000050000000,   1.16848,
,,,00.000050200000,   1.11488,
,,,00.000050400000,   1.11488,
,,,00.000050600000,   1.08272,
,,,00.000050800000,   1.07200,
,,,00.000051000000,   1.00768,
,,,00.000051200000,   0.99696,
,,,00.000051400000,   0.98624,
,,,00.000051600000,   0.96480,
,,,00.000051800000,   0.94336,
,,,00.000052000000,   0.91120,
,,,00.000052200000,   0.87904,
,,,00.000052400000,   0.84688,
,,,00.000052600000,   0.81472,
,,,00.000052800000,   0.80400,
,,,00.000053000000,   0.79328,
,,,00.000053200000,   0.76112,
,,,00.000053400000,   0.73968,
,,,00.000053600000,   0.71824,
,,,00.000053800000,   0.71824,
,,,00.000054000000,   0.67536,
,,,00.000054200000,   0.66464,
,,,00.000054400000,   0.66464,
,,,00.000054600000,   0.62176,
,,,00.000054800000,   0.61104,
,,,00.000055000000,   0.58960,
,,,00.000055200000,   0.58960,
,,,00.000055400000,   0.55744,
,,,00.000055600000,   0.52528,
,,,00.000055800000,   0.50384,
,,,00.000056000000,   0.49312,
,,,00.000056200000,   0.47168,
,,,00.000056400000,   0.47168,
,,,00.000056600000,   0.45024,
,,,00.000056800000,   0.42880,
,,,00.000057000000,   0.40736,
,,,00.000057200000,   0.38592,
,,,00.000057400000,   0.39664,
,,,00.000057600000,   0.39664,
,,,00.000057800000,   0.38592,
,,,00.000058000000,   0.36448,
,,,00.000058200000,   0.33232,
,,,00.000058400000,   0.33232,
,,,00.000058600000,   0.32160,
,,,00.000058800000,   0.31088,
,,,00.000059000000,   0.31088,
,,,00.000059200000,   0.30016,
,,,00.000059400000,   0.28944,
,,,00.000059600000,   0.30016,
,,,00.000059800000,   0.26800,
,,,00.000060000000,   0.27872,
,,,00.000060200000,   0.26800,
,,,00.000060400000,   0.26800,
,,,00.000060600000,   0.30016,
,,,00.000060800000,   0.27872,
,,,00.000061000000,   0.26800,
,,,00.000061200000,   0.31088,
,,,00.000061400000,   0.30016,
,,,00.000061600000,   0.30016,
,,,00.000061800000,   0.31088,
,,,00.000062000000,   0.28944,
,,,00.000062200000,   0.30016,
,,,00.000062400000,   0.32160,
,,,00.000062600000,   0.30016,
,,,00.000062800000,   0.34304,
,,,00.000063000000,   0.35376,
,,,00.000063200000,   0.35376,
,,,00.000063400000,   0.34304,
,,,00.000063600000,   0.35376,
,,,00.000063800000,   0.36448,
,,,00.000064000000,   0.40736,
,,,00.000064200000,   0.41808,
,,,00.000064400000,   0.41808,
,,,00.000064600000,   0.42880,
,,,00.000064800000,   0.45024,
,,,00.000065000000,   0.45024,
,,,00.000065200000,   0.47168,
,,,00.000065400000,   0.49312,
,,,00.000065600000,   0.47168,
,,,00.000065800000,   0.53600,
,,,00.000066000000,   0.53600,
,,,00.000066200000,   0.54672,
,,,00.000066400000,   0.57888,
,,,00.000066600000,   0.57888,
,,,00.000066800000,   0.61104,
,,,00.000067000000,   0.62176,
,,,00.000067200000,   0.64320,
,,,00.000067400000,   0.68608,
,,,00.000067600000,   0.67536,
,,,00.000067800000,   0.71824,
,,,00.000068000000,   0.72896,
,,,00.000068200000,   0.75040,
,,,00.000068400000,   0.77184,
,,,00.000068600000,   0.80400,
,,,00.000068800000,   0.83616,
,,,00.000069000000,   0.84688,
,,,00.000069200000,   0.85760,
,,,00.000069400000,   0.90048,
,,,00.000069600000,   0.92192,
,,,00.000069800000,   0.96480,
,,,00.000070000000,   0.95408,
,,,00.000070200000,   0.97552,
,,,00.000070400000,   0.99696,
,,,00.000070600000,   1.01840,
,,,00.000070800000,   1.06128,
,,,00.000071000000,   1.08272,
,,,00.000071200000,   1.07200,
,,,00.000071400000,   1.08272,
,,,00.000071600000,   1.11488,
,,,00.000071800000,   1.14704,
,,,00.000072000000,   1.18992,
,,,00.000072200000,   1.18992,
,,,00.000072400000,   1.20064,
,,,00.000072600000,   1.24352,
,,,00.000072800000,   1.24352,
,,,00.000073000000,   1.26496,
,,,00.000073200000,   1.27568,
,,,00.000073400000,   1.30784,
,,,00.000073600000,   1.32928,
,,,00.000073800000,   1.34000,
,,,00.000074000000,   1.31856,
,,,00.000074200000,   1.37216,
,,,00.000074400000,   1.38288,
,,,00.000074600000,   1.40432,
,,,00.000074800000,   1.42576,
,,,00.000075000000,   1.44720,
,,,00.000075200000,   1.44720,
,,,00.000075400000,   1.46864,
,,,00.000075600000,   1.45792,
,,,00.000075800000,   1.46864,
,,,00.000076000000,   1.50080,
,,,00.000076200000,   1.52224,
,,,00.000076400000,   1.51152,
,,,00.000076600000,   1.55440,
,,,00.000076800000,   1.54368,
,,,00.000077000000,   1.53296,
,,,00.000077200000,   1.52224,
,,,00.000077400000,   1.55440,
,,,00.000077600000,   1.59728,
,,,00.000077800000,   1.59728,
,,,00.000078000000,   1.57584,
,,,00.000078200000,   1.57584,
,,,00.000078400000,   1.59728,
,,,00.000078600000,   1.60800,
,,,00.000078800000,   1.60800,
,,,00.000079000000,   1.57584,
,,,00.000079200000,   1.59728,
,,,00.000079400000,   1.59728,
,,,00.000079600000,   1.58656,
,,,00.000079800000,   1.58656,
,,,00.000080000000,   1.58656,
,,,00.000080200000,   1.59728,
,,,00.000080400000,   1.59728,
,,,00.000080600000,   1.59728,
,,,00.000080800000,   1.57584,
,,,00.000081000000,   1.57584,
,,,00.000081200000,   1.56512,
,,,00.000081400000,   1.55440,
,,,00.000081600000,   1.53296,
,,,00.000081800000,   1.54368,
,,,00.000082000000,   1.54368,
,,,00.000082200000,   1.51152,
,,,00.000082400000,   1.54368,
,,,00.000082600000,   1.51152,
,,,00.000082800000,   1.49008,
,,,00.000083000000,   1.49008,
,,,00.000083200000,   1.46864,
,,,00.000083400000,   1.44720,
,,,00.000083600000,   1.42576,
,,,00.000083800000,   1.45792,
,,,00.000084000000,   1.40432,
,,,00.000084200000,   1.38288,
,,,00.000084400000,   1.37216,
,,,00.000084600000,   1.35072,
,,,00.000084800000,   1.36144,
,,,00.000085000000,   1.34000,
,,,00.000085200000,   1.32928,
,,,00.000085400000,   1.29712,
,,,00.000085600000,   1.28640,
,,,00.000085800000,   1.26496,
,,,00.000086000000,   1.25424,
,,,00.000086200000,   1.22208,
,,,00.000086400000,   1.17920,
,,,00.000086600000,   1.16848,
,,,00.000086800000,   1.16848,
,,,00.000087000000,   1.13632,
,,,00.000087200000,   1.11488,
,,,00.000087400000,   1.08272,
,,,00.000087600000,   1.08272,
,,,00.000087800000,   1.11488,
,,,00.000088000000,   1.06128,
,,,00.000088200000,   1.03984,
,,,00.000088400000,   1.02912,
,,,00.000088600000,   0.98624,
,,,00.000088800000,   0.95408,
,,,00.000089000000,   0.94336,
,,,00.000089200000,   0.92192,
,,,00.000089400000,   0.90048,
,,,00.000089600000,   0.88976,
,,,00.000089800000,   0.84688,
,,,00.000090000000,   0.85760,
,,,00.000090200000,   0.82544,
,,,00.000090400000,   0.79328,
,,,00.000090600000,   0.77184,
,,,00.000090800000,   0.76112,
,,,00.000091000000,   0.73968,
,,,00.000091200000,   0.70752,
,,,00.000091400000,   0.71824,
,,,00.000091600000,   0.67536,
,,,00.000091800000,   0.69680,
,,,00.000092000000,   0.64320,
,,,00.000092200000,   0.61104,
,,,00.000092400000,   0.62176,
,,,00.000092600000,   0.61104,
,,,00.000092800000,   0.56816,
,,,00.000093000000,   0.56816,
,,,00.000093200000,   0.56816,
,,,00.000093400000,   0.53600,
,,,00.000093600000,   0.52528,
,,,00.000093800000,   0.52528,
,,,00.000094000000,   0.50384,
,,,00.000094200000,   0.49312,
,,,00.000094400000,   0.47168,
,,,00.000094600000,   0.49312,
,,,00.000094800000,   0.47168,
,,,00.000095000000,   0.47168,
,,,00.000095200000,   0.45024,
,,,00.000095400000,   0.42880,
,,,00.000095600000,   0.42880,
,,,00.000095800000,   0.41808,
,,,00.000096000000,   0.42880,
,,,00.000096200000,   0.39664,
,,,00.000096400000,   0.39664,
,,,00.000096600000,   0.37520,
,,,00.000096800000,   0.38592,
,,,00.000097000000,   0.38592,
,,,00.000097200000,   0.38592,
,,,00.000097400000,   0.39664,
,,,00.000097600000,   0.39664,
,,,00.000097800000,   0.40736,
,,,00.000098000000,   0.37520,
,,,00.000098200000,   0.39664,
,,,00.000098400000,   0.40736,
,,,00.000098600000,   0.37520,
,,,00.000098800000,   0.39664,
,,,00.000099000000,   0.37520,
,,,00.000099200000,   0.39664,
,,,00.000099400000,   0.38592,
,,,00.000099600000,   0.40736,
,,,00.000099800000,   0.39664,
,,,00.000100000000,   0.40736,
,,,00.000100200000,   0.42880,
,,,00.000100400000,   0.42880,
,,,00.000100600000,   0.42880,
,,,00.000100800000,   0.43952,
,,,00.000101000000,   0.45024,
,,,00.000101200000,   0.46096,
,,,00.000101400000,   0.48240,
,,,00.000101600000,   0.50384,
,,,00.000101800000,   0.48240,
,,,00.000102000000,   0.53600,
,,,00.000102200000,   0.55744,
,,,00.000102400000,   0.54672,
,,,00.000102600000,   0.53600,
,,,00.000102800000,   0.60032,
,,,00.000103000000,   0.57888,
,,,00.000103200000,   0.58960,
,,,00.000103400000,   0.61104,
,,,00.000103600000,   0.65392,
,,,00.000103800000,   0.63248,
,,,00.000104000000,   0.66464,
,,,00.000104200000,   0.68608,
,,,00.000104400000,   0.68608,
,,,00.000104600000,   0.73968,
,,,00.000104800000,   0.72896,
,,,00.000105000000,   0.75040,
,,,00.000105200000,   0.75040,
,,,00.000105400000,   0.80400,
,,,00.000105600000,   0.80400,
,,,00.000105800000,   0.82544,
,,,00.000106000000,   0.85760,
